{
	"info": {
		"_postman_id": "8d364f2d-0e29-4728-a41c-547608bd46c8",
		"name": "api-alojamientos",
		"schema": "https://schema.getpostman.com/json/collection/v2.1.0/collection.json",
		"_exporter_id": "18639202"
	},
	"item": [
		{
			"name": "localhost:3001/alojamientos/obtener-alojamientos",
			"request": {
				"method": "GET",
				"header": [
					{
						"key": "Authorization",
						"value": "bearer {{BEARER_TOKEN}}",
						"type": "text"
					}
				],
				"url": {
					"raw": "localhost:3001/alojamientos/obtener-alojamientos",
					"host": [
						"localhost"
					],
					"port": "3001",
					"path": [
						"alojamientos",
						"obtener-alojamientos"
					]
				}
			},
			"response": []
		},
		{
			"name": "localhost:3001/alojamientos/obtener-alojamiento/12",
			"request": {
				"method": "GET",
				"header": [
					{
						"key": "Authorization",
						"value": "bearer {{BEARER_TOKEN}}",
						"type": "text"
					}
				],
				"url": {
					"raw": "localhost:3001/alojamientos/obtener-alojamiento/12",
					"host": [
						"localhost"
					],
					"port": "3001",
					"path": [
						"alojamientos",
						"obtener-alojamiento",
						"12"
					]
				}
			},
			"response": []
		},
		{
			"name": "localhost:3001/alojamientos/nuevo-alojamiento",
			"request": {
				"method": "POST",
				"header": [
					{
						"key": "Authorization",
						"value": "bearer {{BEARER_TOKEN}}",
						"type": "text"
					}
				],
				"body": {
					"mode": "raw",
					"raw": "    {\n        \"nombre\": \"Hostal La República\",\n        \"ubicacion\": \"Punta Cana, República Dominicana\",\n        \"tipo\": \"Hostería\",\n        \"precioPorNoche\": 300,\n        \"capacidad\": 4,\n        \"facilidades\": \"Piscina privada, Playa privada, Wifi, Gimnasio\",\n        \"idProveedor\": 14\n    }",
					"options": {
						"raw": {
							"language": "json"
						}
					}
				},
				"url": {
					"raw": "localhost:3001/alojamientos/nuevo-alojamiento",
					"host": [
						"localhost"
					],
					"port": "3001",
					"path": [
						"alojamientos",
						"nuevo-alojamiento"
					]
				}
			},
			"response": []
		},
		{
			"name": "https://dev-ktiy20mxl6ragjzp.us.auth0.com/oauth/token",
			"request": {
				"method": "POST",
				"header": [
					{
						"key": "content-type",
						"value": "application/json"
					}
				],
				"body": {
					"mode": "raw",
					"raw": "{\"client_id\":\"jMeLWkyFjkhFhORChph0BaqSbpsVcmRW\",\"client_secret\":\"b8NOjgMLmE400_o2Myr2EBkshw1zCs-T9pRNxwDhgQOI8-Q2svkYnQvLz2S4I9Oj\",\"audience\":\"https://api.example.com/alojamientos\",\"grant_type\":\"client_credentials\"}"
				},
				"url": {
					"raw": "https://dev-ktiy20mxl6ragjzp.us.auth0.com/oauth/token",
					"protocol": "https",
					"host": [
						"dev-ktiy20mxl6ragjzp",
						"us",
						"auth0",
						"com"
					],
					"path": [
						"oauth",
						"token"
					]
				}
			},
			"response": []
		},
		{
			"name": "localhost:3001/alojamientos/actualizar-alojamiento/12",
			"request": {
				"method": "PUT",
				"header": [
					{
						"key": "Authorization",
						"value": "bearer {{BEARER_TOKEN}}",
						"type": "text"
					}
				],
				"body": {
					"mode": "raw",
					"raw": "    {\n        \"nombre\": \"Hostal La Motosierra\",\n        \"ubicacion\": \"Punta Cana, República Dominicana\",\n        \"tipo\": \"Hostería\",\n        \"precioPorNoche\": 300,\n        \"capacidad\": 4,\n        \"facilidades\": \"Piscina privada, Playa privada, Wifi, Gimnasio\",\n        \"idProveedor\": 14\n    }",
					"options": {
						"raw": {
							"language": "json"
						}
					}
				},
				"url": {
					"raw": "localhost:3001/alojamientos/actualizar-alojamiento/12",
					"host": [
						"localhost"
					],
					"port": "3001",
					"path": [
						"alojamientos",
						"actualizar-alojamiento",
						"12"
					]
				}
			},
			"response": []
		},
		{
			"name": "localhost:3001/alojamientos/eliminar-alojamiento/12",
			"request": {
				"method": "DELETE",
				"header": [
					{
						"key": "Authorization",
						"value": "bearer {{BEARER_TOKEN}}",
						"type": "text"
					}
				],
				"url": {
					"raw": "localhost:3001/alojamientos/eliminar-alojamiento/12",
					"host": [
						"localhost"
					],
					"port": "3001",
					"path": [
						"alojamientos",
						"eliminar-alojamiento",
						"12"
					]
				}
			},
			"response": []
		},
		{
			"name": "localhost:3001/clientes/201/reservas-alojamientos",
			"request": {
				"method": "GET",
				"header": [
					{
						"key": "Authorization",
						"value": "bearer {{BEARER_TOKEN}}",
						"type": "text"
					}
				],
				"url": {
					"raw": "localhost:3001/clientes/201/reservas-alojamientos",
					"host": [
						"localhost"
					],
					"port": "3001",
					"path": [
						"clientes",
						"201",
						"reservas-alojamientos"
					]
				}
			},
			"response": []
		},
		{
			"name": "localhost:3001/reservas/nueva-reserva",
			"protocolProfileBehavior": {
				"disableBodyPruning": true
			},
			"request": {
				"method": "GET",
				"header": [
					{
						"key": "Authorization",
						"value": "bearer {{BEARER_TOKEN}}",
						"type": "text"
					}
				],
				"body": {
					"mode": "raw",
					"raw": "    {\n        \"alojamiento_id\": 101,\n        \"cliente_id\": 201,\n        \"fecha_entrada\": \"2023-01-01T00:00:00.000Z\",\n        \"fecha_salida\": \"2023-01-05T00:00:00.000Z\",\n        \"huespedes\": 4,\n        \"precio_total\": 600,\n        \"estado\": \"Confirmada\"\n    }",
					"options": {
						"raw": {
							"language": "json"
						}
					}
				},
				"url": {
					"raw": "localhost:3001/reservas/nueva-reserva",
					"host": [
						"localhost"
					],
					"port": "3001",
					"path": [
						"reservas",
						"nueva-reserva"
					]
				}
			},
			"response": []
		}
	]
}